{
	"additionalNodes": [ {
		"children": [],
		"id": "Ej99ksWx1X64tijGctBDYYF3mNG4kn0r",
		"nodeType": "luaCommand",
		"parameters": [ {
			"name": "var",
			"value": "boxStage"
		}, {
			"name": "value",
			"value": "nota_uhlik_map.GetNextStageForwardOnly(bb.lineInfos[line], passangers, bb.UnitsOffsets.armbox)"
		}, {
			"name": "scriptName",
			"value": "store"
		} ],
		"scriptName": "store"
	}, {
		"children": [ {
			"children": [],
			"id": "I90UDfb4L3fwnkqhRwBTGZqqRHDp7a96",
			"nodeType": "luaCommand",
			"parameters": [ {
				"name": "var",
				"value": "formationDefinition"
			}, {
				"name": "value",
				"value": "formation.Definition(\"swarm\")"
			}, {
				"name": "scriptName",
				"value": "store"
			} ],
			"scriptName": "store"
		}, {
			"children": [],
			"id": "6qsYlOdn1iuCegxgWlqLeiwFZqfZOIZb",
			"nodeType": "luaCommand",
			"parameters": [ {
				"name": "var",
				"value": "relativeFormation"
			}, {
				"name": "value",
				"value": "formation.StaticTransform(formationDefinition.positions, 0, nil, Vec3(30, 1 ,30))"
			}, {
				"name": "scriptName",
				"value": "store"
			} ],
			"scriptName": "store"
		} ],
		"id": "9I0GScocmA333CLLdPM2YizqbvoQt3mC",
		"nodeType": "sequence",
		"parameters": []
	} ],
	"additionalParameters": {
		"root": {
			"height": 168,
			"width": 229
		}
	},
	"inputs": [ {
		"command": "Variable",
		"name": "line"
	}, {
		"command": "Variable",
		"name": "transporters"
	}, {
		"command": "Variable",
		"name": "passangers"
	} ],
	"outputs": [],
	"properties": {
		"068vgQrELr5sVwGXCwIa4bUkuClycnhI": {
			"height": 151,
			"title": "reference",
			"width": 302,
			"x": 3086,
			"y": 973
		},
		"27LVpwvW2BFsGbHOWvGXOeLjY2bMiiWX": {
			"height": 94,
			"title": "store",
			"width": 847,
			"x": 1539,
			"y": -67
		},
		"2FRR84pWnpwo3oDTqyBCg9xe49JUE0sp": {
			"height": 94,
			"title": "store",
			"width": 907,
			"x": 1533,
			"y": -269
		},
		"2N2Uoy82gMabh5lQUonlGANIE1hfY8uG": {
			"height": 88,
			"title": "luaCondition",
			"width": 321,
			"x": 1526,
			"y": 94
		},
		"3O9qHTZ8mcWhm2XLZEdGLKmA1SGcvH9f": {
			"height": 60,
			"title": "sequence",
			"width": 143,
			"x": 1253,
			"y": 251
		},
		"3qQjq8r6lzxpFfVLRuaaimF29vN6rQfd": {
			"height": 151,
			"title": "reference",
			"width": 302,
			"x": 3082,
			"y": 646
		},
		"42Dm6dbNC4H9sJqbFMSc0Z3H7UoBZD6j": {
			"height": 151,
			"title": "reference",
			"width": 302,
			"x": 3076,
			"y": 493
		},
		"5AawLYm8QJ5eyFJXsRre2hmL6pZJD7ET": {
			"height": 100,
			"title": "store",
			"width": 376,
			"x": 1450,
			"y": 247
		},
		"6qsYlOdn1iuCegxgWlqLeiwFZqfZOIZb": {
			"height": 94,
			"title": "store",
			"width": 831,
			"x": 1543,
			"y": -371
		},
		"7C8njMdaJIizqfHYLtYrWNiZEMEVQe4w": {
			"height": 193,
			"title": "reference",
			"width": 408,
			"x": 2205,
			"y": 737
		},
		"9I0GScocmA333CLLdPM2YizqbvoQt3mC": {
			"height": 60,
			"title": "sequence",
			"width": 143,
			"x": 1301,
			"y": -420
		},
		"9ayTB8hXaqBReYXgbD3BJYPEaUz1SYew": {
			"height": 100,
			"title": "store",
			"width": 376,
			"x": 1449,
			"y": 350
		},
		"Ej99ksWx1X64tijGctBDYYF3mNG4kn0r": {
			"height": 94,
			"title": "store",
			"width": 713,
			"x": 2496,
			"y": -405
		},
		"I64FlOLA1zkAGOA7iSVqx7ZTPWOiNqYZ": {
			"height": 94,
			"title": "store",
			"width": 655,
			"x": 1538,
			"y": -170
		},
		"I90UDfb4L3fwnkqhRwBTGZqqRHDp7a96": {
			"height": 94,
			"title": "store",
			"width": 315,
			"x": 1530,
			"y": -476
		},
		"Jl71T4WnUnoJ34sDWieaj9ez5AF3jQc0": {
			"height": 91,
			"title": "luaCondition",
			"width": 471,
			"x": 747,
			"y": 21
		},
		"RatGYYTm193Q1auD8x9wbiYiAn623zNG": {
			"height": 193,
			"title": "reference",
			"width": 408,
			"x": 2198,
			"y": 531
		},
		"VJVxCRHPRZ4wapcAO94iUKU2qr41GJ8H": {
			"height": 54,
			"title": "failure",
			"width": 131,
			"x": 1448,
			"y": 528
		},
		"XJhOCKMPCIMJeKt1nulkY0bRver97XGW": {
			"height": 151,
			"title": "reference",
			"width": 302,
			"x": 3090,
			"y": 290
		},
		"abNXbsQn8665A9LSpoxNrdg3CIzl6PFB": {
			"height": 151,
			"title": "reference",
			"width": 302,
			"x": 3098,
			"y": 810
		},
		"cRKKmEXbvK6aOoJYie9kl14BHxtuWswf": {
			"height": 90,
			"title": "luaCondition",
			"width": 634,
			"x": 1999,
			"y": 90
		},
		"cdgXnOyBSreVzq35369YBEvc4R7ob32C": {
			"height": 60,
			"title": "sequence",
			"width": 143,
			"x": 1308,
			"y": 60
		},
		"cf066mH6XwZTzeds5LCtcYvAlBb6Hj9b": {
			"height": 70,
			"title": "parallel",
			"width": 202,
			"x": 1948,
			"y": 473
		},
		"f8Hy7cCKqXQI8B9BHcleyxEYOOSsZ26B": {
			"height": 193,
			"title": "reference",
			"width": 408,
			"x": 2197,
			"y": 948
		},
		"jQZcJ0TtgVrm3iK5Q6PCxyx0qaSpYVjG": {
			"height": 193,
			"title": "reference",
			"width": 404,
			"x": 2196,
			"y": 312
		},
		"mEKpaovBh7i60MQohhZ3RnZccx8hld20": {
			"height": 193,
			"title": "reference",
			"width": 408,
			"x": 2197,
			"y": 1146
		},
		"mpP8g1X2amd3UfFOBUFX60D4a58xbObQ": {
			"height": 70,
			"title": "parallel",
			"width": 202,
			"x": 2713,
			"y": 476
		},
		"nX1Xv1S225EAlEORhw0g1QsqazsVsHVo": {
			"height": 72,
			"title": "wait",
			"width": 131,
			"x": 1452,
			"y": 447
		},
		"w80viJyKGlj7l47j653PKRPyeYHp3VS1": {
			"height": 100,
			"title": "store",
			"width": 376,
			"x": 2872,
			"y": 90
		}
	},
	"roles": [ {
		"categories": [],
		"name": "Role 0"
	} ],
	"root": {
		"children": [ {
			"children": [ {
				"children": [],
				"id": "2FRR84pWnpwo3oDTqyBCg9xe49JUE0sp",
				"nodeType": "luaCommand",
				"parameters": [ {
					"name": "var",
					"value": "relativeFormation"
				}, {
					"name": "value",
					"value": "{Vec3(-400, 0, -400), Vec3(-350, 0, -350), Vec3(-300, 0, -300), Vec3(-350,0,-350), Vec3(-300,0,-300)}"
				}, {
					"name": "scriptName",
					"value": "store"
				} ],
				"scriptName": "store"
			}, {
				"children": [],
				"id": "I64FlOLA1zkAGOA7iSVqx7ZTPWOiNqYZ",
				"nodeType": "luaCommand",
				"parameters": [ {
					"name": "var",
					"value": "boxStage"
				}, {
					"name": "value",
					"value": "nota_uhlik_map.GetNextStageBox(bb.lineInfos[line], passangers, bb.UnitsOffsets.armbox)"
				}, {
					"name": "scriptName",
					"value": "store"
				} ],
				"scriptName": "store"
			}, {
				"children": [],
				"id": "27LVpwvW2BFsGbHOWvGXOeLjY2bMiiWX",
				"nodeType": "luaCommand",
				"parameters": [ {
					"name": "var",
					"value": "atlasStage"
				}, {
					"name": "value",
					"value": "nota_uhlik_map.GetStageRelativeTo(bb.lineInfos[line], boxStage.id, bb.UnitsOffsets.armatlas - bb.UnitsOffsets.armbox)"
				}, {
					"name": "scriptName",
					"value": "store"
				} ],
				"scriptName": "store"
			}, {
				"children": [ {
					"children": [ {
						"children": [],
						"id": "w80viJyKGlj7l47j653PKRPyeYHp3VS1",
						"nodeType": "luaCommand",
						"parameters": [ {
							"name": "var",
							"value": "_"
						}, {
							"name": "value",
							"value": "ChangeTroopsStatus(passangers, \"idle\")"
						}, {
							"name": "scriptName",
							"value": "store"
						} ],
						"scriptName": "store"
					}, {
						"children": [ {
							"children": [],
							"id": "XJhOCKMPCIMJeKt1nulkY0bRver97XGW",
							"nodeType": "reference",
							"parameters": [ {
								"name": "behaviourName",
								"value": "nota_uhlik_exam.DepotTransporter"
							} ],
							"referenceInputs": [ {
								"name": "transporter",
								"value": "transporters[1]"
							}, {
								"name": "targetPosition",
								"value": "atlasStage.point"
							} ],
							"referenceOutputs": []
						}, {
							"children": [],
							"id": "42Dm6dbNC4H9sJqbFMSc0Z3H7UoBZD6j",
							"nodeType": "reference",
							"parameters": [ {
								"name": "behaviourName",
								"value": "nota_uhlik_exam.DepotTransporter"
							} ],
							"referenceInputs": [ {
								"name": "transporter",
								"value": "transporters[2]"
							}, {
								"name": "targetPosition",
								"value": "atlasStage.point"
							} ],
							"referenceOutputs": []
						}, {
							"children": [],
							"id": "3qQjq8r6lzxpFfVLRuaaimF29vN6rQfd",
							"nodeType": "reference",
							"parameters": [ {
								"name": "behaviourName",
								"value": "nota_uhlik_exam.DepotTransporter"
							} ],
							"referenceInputs": [ {
								"name": "transporter",
								"value": "transporters[3]"
							}, {
								"name": "targetPosition",
								"value": "atlasStage.point"
							} ],
							"referenceOutputs": []
						}, {
							"children": [],
							"id": "abNXbsQn8665A9LSpoxNrdg3CIzl6PFB",
							"nodeType": "reference",
							"parameters": [ {
								"name": "behaviourName",
								"value": "nota_uhlik_exam.DepotTransporter"
							} ],
							"referenceInputs": [ {
								"name": "transporter",
								"value": "transporters[4]"
							}, {
								"name": "targetPosition",
								"value": "atlasStage.point"
							} ],
							"referenceOutputs": []
						}, {
							"children": [],
							"id": "068vgQrELr5sVwGXCwIa4bUkuClycnhI",
							"nodeType": "reference",
							"parameters": [ {
								"name": "behaviourName",
								"value": "nota_uhlik_exam.DepotTransporter"
							} ],
							"referenceInputs": [ {
								"name": "transporter",
								"value": "transporters[5]"
							}, {
								"name": "targetPosition",
								"value": "atlasStage.point"
							} ],
							"referenceOutputs": []
						} ],
						"id": "mpP8g1X2amd3UfFOBUFX60D4a58xbObQ",
						"nodeType": "parallel",
						"parameters": [ {
							"name": "mode",
							"value": "all-success"
						} ]
					} ],
					"id": "cRKKmEXbvK6aOoJYie9kl14BHxtuWswf",
					"nodeType": "luaCondition",
					"parameters": [ {
						"name": "expression",
						"value": "boxStage.id > nota_uhlik_map.GetCurrentStage(bb.lineInfos[line], passangers, \"minimal\").id"
					}, {
						"name": "repeat",
						"value": "true"
					} ]
				}, {
					"children": [ {
						"children": [],
						"id": "jQZcJ0TtgVrm3iK5Q6PCxyx0qaSpYVjG",
						"nodeType": "reference",
						"parameters": [ {
							"name": "behaviourName",
							"value": "nota_uhlik_exam.TransportUnitManager"
						} ],
						"referenceInputs": [ {
							"name": "transporters",
							"value": "transporters"
						}, {
							"name": "passangers",
							"value": "passangers"
						}, {
							"name": "targetPosition",
							"value": "boxStage.point + relativeFormation[1]"
						} ],
						"referenceOutputs": []
					}, {
						"children": [],
						"id": "RatGYYTm193Q1auD8x9wbiYiAn623zNG",
						"nodeType": "reference",
						"parameters": [ {
							"name": "behaviourName",
							"value": "nota_uhlik_exam.TransportUnitManager"
						} ],
						"referenceInputs": [ {
							"name": "transporters",
							"value": "transporters"
						}, {
							"name": "passangers",
							"value": "passangers"
						}, {
							"name": "targetPosition",
							"value": "boxStage.point + relativeFormation[2]"
						} ],
						"referenceOutputs": []
					}, {
						"children": [],
						"id": "7C8njMdaJIizqfHYLtYrWNiZEMEVQe4w",
						"nodeType": "reference",
						"parameters": [ {
							"name": "behaviourName",
							"value": "nota_uhlik_exam.TransportUnitManager"
						} ],
						"referenceInputs": [ {
							"name": "transporters",
							"value": "transporters"
						}, {
							"name": "passangers",
							"value": "passangers"
						}, {
							"name": "targetPosition",
							"value": "boxStage.point + relativeFormation[3]"
						} ],
						"referenceOutputs": []
					}, {
						"children": [],
						"id": "f8Hy7cCKqXQI8B9BHcleyxEYOOSsZ26B",
						"nodeType": "reference",
						"parameters": [ {
							"name": "behaviourName",
							"value": "nota_uhlik_exam.TransportUnitManager"
						} ],
						"referenceInputs": [ {
							"name": "transporters",
							"value": "transporters"
						}, {
							"name": "passangers",
							"value": "passangers"
						}, {
							"name": "targetPosition",
							"value": "boxStage.point + relativeFormation[4]"
						} ],
						"referenceOutputs": []
					}, {
						"children": [],
						"id": "mEKpaovBh7i60MQohhZ3RnZccx8hld20",
						"nodeType": "reference",
						"parameters": [ {
							"name": "behaviourName",
							"value": "nota_uhlik_exam.TransportUnitManager"
						} ],
						"referenceInputs": [ {
							"name": "transporters",
							"value": "transporters"
						}, {
							"name": "passangers",
							"value": "passangers"
						}, {
							"name": "targetPosition",
							"value": "boxStage.point + relativeFormation[5]"
						} ],
						"referenceOutputs": []
					} ],
					"id": "cf066mH6XwZTzeds5LCtcYvAlBb6Hj9b",
					"nodeType": "parallel",
					"parameters": [ {
						"name": "mode",
						"value": "all-success"
					} ]
				} ],
				"id": "2N2Uoy82gMabh5lQUonlGANIE1hfY8uG",
				"nodeType": "luaCondition",
				"parameters": [ {
					"name": "expression",
					"value": "CheckTroopsStatus(passangers, \"done\")"
				}, {
					"name": "repeat",
					"value": "true"
				} ]
			} ],
			"id": "cdgXnOyBSreVzq35369YBEvc4R7ob32C",
			"nodeType": "sequence",
			"parameters": []
		}, {
			"children": [ {
				"children": [],
				"id": "5AawLYm8QJ5eyFJXsRre2hmL6pZJD7ET",
				"nodeType": "luaCommand",
				"parameters": [ {
					"name": "var",
					"value": "_"
				}, {
					"name": "value",
					"value": "ChangeTroopsStatus(passangers, \"idle\")"
				}, {
					"name": "scriptName",
					"value": "store"
				} ],
				"scriptName": "store"
			}, {
				"children": [],
				"id": "9ayTB8hXaqBReYXgbD3BJYPEaUz1SYew",
				"nodeType": "luaCommand",
				"parameters": [ {
					"name": "var",
					"value": "_"
				}, {
					"name": "value",
					"value": "ChangeTroopsStatus(transporters, \"idle\")"
				}, {
					"name": "scriptName",
					"value": "store"
				} ],
				"scriptName": "store"
			}, {
				"children": [],
				"id": "nX1Xv1S225EAlEORhw0g1QsqazsVsHVo",
				"nodeType": "wait",
				"parameters": [ {
					"name": "time",
					"value": 2
				} ]
			}, {
				"children": [],
				"id": "VJVxCRHPRZ4wapcAO94iUKU2qr41GJ8H",
				"nodeType": "failure",
				"parameters": []
			} ],
			"id": "3O9qHTZ8mcWhm2XLZEdGLKmA1SGcvH9f",
			"nodeType": "sequence",
			"parameters": []
		} ],
		"id": "Jl71T4WnUnoJ34sDWieaj9ez5AF3jQc0",
		"nodeType": "luaCondition",
		"parameters": [ {
			"name": "expression",
			"value": "AllTroopsAreAlive(transporters) and AllTroopsAreAlive(passangers)"
		}, {
			"name": "repeat",
			"value": "true"
		} ]
	}
}