{
	"additionalNodes": [],
	"additionalParameters": {
		"root": {
			"height": 168,
			"width": 216
		}
	},
	"inputs": [ {
		"command": "Variable",
		"name": "line"
	}, {
		"command": "Variable",
		"name": "troops"
	}, {
		"command": "Variable",
		"name": "offset"
	}, {
		"command": "Variable",
		"name": "fight"
	} ],
	"outputs": [],
	"properties": {
		"6MJgJ2W8ZcFhTN4mgk3X9PGIsk6lkxf2": {
			"height": 90,
			"title": "luaCondition",
			"width": 608,
			"x": 1309,
			"y": 694
		},
		"GeTzbScOkQeBnuSPgEjoL7m1BvbmOk1V": {
			"height": 94,
			"title": "store",
			"width": 603,
			"x": 1312,
			"y": 470
		},
		"J1F2MrhcLzCYjF8JAJOil8eieb84KZKv": {
			"height": 54,
			"title": "failure",
			"width": 131,
			"x": 1031,
			"y": 318
		},
		"M8qVvzp7LAYrfcuZwN2ti3GKagLOC2LM": {
			"height": 54,
			"title": "failure",
			"width": 131,
			"x": 2023,
			"y": 635
		},
		"N9Kgm6mVanhcnkAZb9YW8qcFivbUf3uX": {
			"height": 113,
			"title": "store",
			"width": 397,
			"x": 1308,
			"y": -42
		},
		"WAvUvR8FEvjZqIIBcmsEwphoAHW8gPff": {
			"height": 91,
			"title": "luaCondition",
			"width": 274,
			"x": 444,
			"y": 30
		},
		"Z6UnU8snWSOElAh4mfC64NB7MwzQvipE": {
			"height": 60,
			"title": "sequence",
			"width": 143,
			"x": 1049,
			"y": 70
		},
		"goFW4NfGjYI4Codp9Fpa2dOEWYvseLIz": {
			"height": 152,
			"title": "nota_uhlik_map.moveCustomGroup",
			"width": 348,
			"x": 1310,
			"y": 299
		},
		"jV2lrWPagzNFMvOLUv3nXBInGsNfuvfV": {
			"height": 94,
			"title": "store",
			"width": 498,
			"x": 1308,
			"y": 84
		},
		"ljaWcadoTM2xwTVNzBedUyV4WASUObjy": {
			"height": 94,
			"title": "store",
			"width": 603,
			"x": 1309,
			"y": 187
		},
		"mcgTl1ADYHljLGUsN73mUX4mOgLAawGG": {
			"height": 60,
			"title": "sequence",
			"width": 143,
			"x": 841,
			"y": 226
		},
		"qQIWqE5JCQ09OYe6kyrKCNMpV9IMlWfP": {
			"height": 72,
			"title": "wait",
			"width": 131,
			"x": 1021,
			"y": 212
		},
		"x5tbdD7cGKGTlFc92qMH44WwciM2uP8p": {
			"height": 112,
			"title": "nota_uhlik_exam.clearArea",
			"width": 254,
			"x": 2004,
			"y": 776
		}
	},
	"roles": [ {
		"categories": [],
		"name": "Role 0"
	} ],
	"root": {
		"children": [ {
			"children": [ {
				"children": [],
				"id": "N9Kgm6mVanhcnkAZb9YW8qcFivbUf3uX",
				"nodeType": "luaCommand",
				"parameters": [ {
					"name": "var",
					"value": "relativeFormation"
				}, {
					"name": "value",
					"value": "{Vec3(-250, 0, -250), Vec3(300, 0, 300)}"
				}, {
					"name": "scriptName",
					"value": "store"
				} ],
				"scriptName": "store"
			}, {
				"children": [],
				"id": "jV2lrWPagzNFMvOLUv3nXBInGsNfuvfV",
				"nodeType": "luaCommand",
				"parameters": [ {
					"name": "var",
					"value": "nextStage"
				}, {
					"name": "value",
					"value": "nota_uhlik_map.GetNextStage(bb.lineInfos[line], troops, offset)"
				}, {
					"name": "scriptName",
					"value": "store"
				} ],
				"scriptName": "store"
			}, {
				"children": [],
				"id": "ljaWcadoTM2xwTVNzBedUyV4WASUObjy",
				"nodeType": "luaCommand",
				"parameters": [ {
					"name": "var",
					"value": "groupDefinition"
				}, {
					"name": "value",
					"value": "nota_uhlik_map.ToFormationFormat(troops)"
				}, {
					"name": "scriptName",
					"value": "store"
				} ],
				"scriptName": "store"
			}, {
				"children": [],
				"id": "goFW4NfGjYI4Codp9Fpa2dOEWYvseLIz",
				"nodeType": "luaCommand",
				"parameters": [ {
					"name": "groupDefintion",
					"value": "groupDefinition"
				}, {
					"name": "position",
					"value": "nextStage.point"
				}, {
					"name": "formation",
					"value": "relativeFormation"
				}, {
					"name": "fight",
					"value": "fight"
				}, {
					"name": "treshold",
					"value": "50"
				}, {
					"name": "scriptName",
					"value": "nota_uhlik_map.moveCustomGroup"
				} ],
				"scriptName": "nota_uhlik_map.moveCustomGroup"
			}, {
				"children": [],
				"id": "GeTzbScOkQeBnuSPgEjoL7m1BvbmOk1V",
				"nodeType": "luaCommand",
				"parameters": [ {
					"name": "var",
					"value": "radius"
				}, {
					"name": "value",
					"value": "2*bb.lineInfos[line].stepSize"
				}, {
					"name": "scriptName",
					"value": "store"
				} ],
				"scriptName": "store"
			}, {
				"children": [ {
					"children": [],
					"id": "M8qVvzp7LAYrfcuZwN2ti3GKagLOC2LM",
					"nodeType": "failure",
					"parameters": []
				}, {
					"children": [],
					"id": "x5tbdD7cGKGTlFc92qMH44WwciM2uP8p",
					"nodeType": "luaCommand",
					"parameters": [ {
						"name": "troops",
						"value": "troops"
					}, {
						"name": "center",
						"value": "nextStage.point"
					}, {
						"name": "radius",
						"value": "1.5*radius"
					}, {
						"name": "scriptName",
						"value": "nota_uhlik_exam.clearArea"
					} ],
					"scriptName": "nota_uhlik_exam.clearArea"
				} ],
				"id": "6MJgJ2W8ZcFhTN4mgk3X9PGIsk6lkxf2",
				"nodeType": "luaCondition",
				"parameters": [ {
					"name": "expression",
					"value": "nota_uhlik_map.IsAround(\"enemy\", troops, radius)"
				}, {
					"name": "repeat",
					"value": "true"
				} ]
			} ],
			"id": "Z6UnU8snWSOElAh4mfC64NB7MwzQvipE",
			"nodeType": "sequence",
			"parameters": []
		}, {
			"children": [ {
				"children": [],
				"id": "qQIWqE5JCQ09OYe6kyrKCNMpV9IMlWfP",
				"nodeType": "wait",
				"parameters": [ {
					"name": "time",
					"value": 2
				} ]
			}, {
				"children": [],
				"id": "J1F2MrhcLzCYjF8JAJOil8eieb84KZKv",
				"nodeType": "failure",
				"parameters": []
			} ],
			"id": "mcgTl1ADYHljLGUsN73mUX4mOgLAawGG",
			"nodeType": "sequence",
			"parameters": []
		} ],
		"id": "WAvUvR8FEvjZqIIBcmsEwphoAHW8gPff",
		"nodeType": "luaCondition",
		"parameters": [ {
			"name": "expression",
			"value": "AllTroopsAreAlive(troops)"
		}, {
			"name": "repeat",
			"value": "true"
		} ]
	}
}