{
	"additionalNodes": [ {
		"children": [],
		"id": "U8pgBDrseL7jYwXUkPKWf0qvAE5MAmEC",
		"nodeType": "luaCommand",
		"parameters": [ {
			"name": "var",
			"value": "originalPoints"
		}, {
			"name": "value",
			"value": "{Vec3(7658,386,1713), Vec3(5841,386,1713), Vec3(4500,386,2213),Vec3(4000,386,3213),Vec3(4000,386,4213), Vec3(4000,386,5213)}"
		}, {
			"name": "scriptName",
			"value": "store"
		} ],
		"scriptName": "store"
	}, {
		"children": [],
		"id": "6YVkTx1pY9rfSXGGu0alZPDKVVt9NFDn",
		"nodeType": "luaCommand",
		"parameters": [ {
			"name": "var",
			"value": "bb.lineInfos.mid"
		}, {
			"name": "value",
			"value": "{stages=mid, stepSize=200}"
		}, {
			"name": "scriptName",
			"value": "store"
		} ],
		"scriptName": "store"
	}, {
		"children": [],
		"id": "PeYHOyvCFTHe9nHwQjFRwmjEJKG3wopu",
		"nodeType": "luaCommand",
		"parameters": [ {
			"name": "var",
			"value": "top"
		}, {
			"name": "value",
			"value": "{Vec3(700, 387, 7829), Vec3(700, 387, 4826), Vec3(700, 387, 2194), Vec3(2244, 387, 773), Vec3(4582, 387, 773), Vec3(7494, 387, 773)}"
		}, {
			"name": "scriptName",
			"value": "store"
		} ],
		"scriptName": "store"
	}, {
		"children": [],
		"id": "aRafTaIFiz0YlCKXPifTlKQgB0tx2IUY",
		"nodeType": "luaCommand",
		"parameters": [ {
			"name": "var",
			"value": "bb.lineInfos.top"
		}, {
			"name": "value",
			"value": "{stages=top, stepSize=200}"
		}, {
			"name": "scriptName",
			"value": "store"
		} ],
		"scriptName": "store"
	}, {
		"children": [],
		"id": "IZ207eBAdbrIJMQLX9fGcvzfQ8CDP192",
		"nodeType": "luaCommand",
		"parameters": [ {
			"name": "var",
			"value": "mid"
		}, {
			"name": "value",
			"value": "{Vec3(2562, 386, 7933), Vec3(3353, 387, 6919), Vec3(4548, 386, 5662), Vec3(5785, 386, 4121), Vec3(6904, 386, 2650), Vec3(8270, 386, 1755)}"
		}, {
			"name": "scriptName",
			"value": "store"
		} ],
		"scriptName": "store"
	}, {
		"children": [],
		"id": "NnoBedYN22WMiTlXBm3zfV3ODSsZr1Up",
		"nodeType": "luaCommand",
		"parameters": [ {
			"name": "var",
			"value": "bb.lineInfos.bot"
		}, {
			"name": "value",
			"value": "{stages=bot, stepSize=200}"
		}, {
			"name": "scriptName",
			"value": "store"
		} ],
		"scriptName": "store"
	}, {
		"children": [],
		"id": "8OxU9Zx2Cke7femz3UWUxy1ZGRQ4a7gk",
		"nodeType": "luaCommand",
		"parameters": [ {
			"name": "var",
			"value": "bot"
		}, {
			"name": "value",
			"value": "{Vec3(2824, 387, 9408), Vec3(5224, 387, 9408), Vec3(7653, 387, 9408), Vec3(9134, 387, 7885), Vec3(9134, 387, 5549), Vec3(9134, 387, 2707)}"
		}, {
			"name": "scriptName",
			"value": "store"
		} ],
		"scriptName": "store"
	} ],
	"additionalParameters": {
		"root": {
			"height": 88,
			"width": 180
		}
	},
	"inputs": [],
	"outputs": [],
	"properties": {
		"6YVkTx1pY9rfSXGGu0alZPDKVVt9NFDn": {
			"height": 94,
			"title": "store",
			"width": 497,
			"x": 522,
			"y": 328
		},
		"8OxU9Zx2Cke7femz3UWUxy1ZGRQ4a7gk": {
			"height": 94,
			"title": "store",
			"width": 1094,
			"x": 1131,
			"y": 267
		},
		"IZ207eBAdbrIJMQLX9fGcvzfQ8CDP192": {
			"height": 94,
			"title": "store",
			"width": 1094,
			"x": 1117,
			"y": 156
		},
		"NnoBedYN22WMiTlXBm3zfV3ODSsZr1Up": {
			"height": 94,
			"title": "store",
			"width": 497,
			"x": 531,
			"y": 729
		},
		"PeYHOyvCFTHe9nHwQjFRwmjEJKG3wopu": {
			"height": 94,
			"title": "store",
			"width": 1094,
			"x": 1110,
			"y": 60
		},
		"U8pgBDrseL7jYwXUkPKWf0qvAE5MAmEC": {
			"height": 94,
			"title": "store",
			"width": 963,
			"x": 1112,
			"y": -39
		},
		"Ye6RdFYMkWrbd0dh8CWiWnVoeM9zHUup": {
			"height": 94,
			"title": "store",
			"width": 497,
			"x": 504,
			"y": -180
		},
		"aRafTaIFiz0YlCKXPifTlKQgB0tx2IUY": {
			"height": 94,
			"title": "store",
			"width": 497,
			"x": 526,
			"y": 526
		},
		"gGv26n1DUSNvOCoHBPRyGIKonOCp6kOi": {
			"height": 60,
			"title": "sequence",
			"width": 143,
			"x": 278,
			"y": 1
		},
		"hjhavNCQhTWxIoRReUvacuGz3Y470rJM": {
			"height": 94,
			"title": "store",
			"width": 497,
			"x": 522,
			"y": 623
		},
		"ohnWSWrujoI95wPoVcMhgAN7vkeK0Unt": {
			"height": 94,
			"title": "store",
			"width": 497,
			"x": 508,
			"y": -275
		},
		"rethwqHNnkcJfdGKTLQdABMkHm1LQHsy": {
			"height": 94,
			"title": "store",
			"width": 497,
			"x": 516,
			"y": 426
		},
		"sYJoCVJyxsa5hQUil2RbxBmUbMT5Q4KH": {
			"height": 94,
			"title": "store",
			"width": 497,
			"x": 517,
			"y": 220
		},
		"yTIH08PfMytm0IxaCxLsNrqgasa1RJwF": {
			"height": 94,
			"title": "store",
			"width": 310,
			"x": 517,
			"y": -5
		}
	},
	"roles": [ {
		"categories": [],
		"name": "Role 0"
	} ],
	"root": {
		"children": [ {
			"children": [],
			"id": "ohnWSWrujoI95wPoVcMhgAN7vkeK0Unt",
			"nodeType": "luaCommand",
			"parameters": [ {
				"name": "var",
				"value": "stepSize"
			}, {
				"name": "value",
				"value": "230"
			}, {
				"name": "scriptName",
				"value": "store"
			} ],
			"scriptName": "store"
		}, {
			"children": [],
			"id": "Ye6RdFYMkWrbd0dh8CWiWnVoeM9zHUup",
			"nodeType": "luaCommand",
			"parameters": [ {
				"name": "var",
				"value": "bb.lineInfos"
			}, {
				"name": "value",
				"value": "{}"
			}, {
				"name": "scriptName",
				"value": "store"
			} ],
			"scriptName": "store"
		}, {
			"children": [],
			"id": "yTIH08PfMytm0IxaCxLsNrqgasa1RJwF",
			"nodeType": "luaCommand",
			"parameters": [ {
				"name": "var",
				"value": "points"
			}, {
				"name": "value",
				"value": "nota_uhlik_map.MissionInfoPoints()"
			}, {
				"name": "scriptName",
				"value": "store"
			} ],
			"scriptName": "store"
		}, {
			"children": [],
			"id": "sYJoCVJyxsa5hQUil2RbxBmUbMT5Q4KH",
			"nodeType": "luaCommand",
			"parameters": [ {
				"name": "var",
				"value": "bb.lineInfos.mid"
			}, {
				"name": "value",
				"value": "nota_uhlik_map.PrepareDOTALine(points.mid, stepSize)"
			}, {
				"name": "scriptName",
				"value": "store"
			} ],
			"scriptName": "store"
		}, {
			"children": [],
			"id": "rethwqHNnkcJfdGKTLQdABMkHm1LQHsy",
			"nodeType": "luaCommand",
			"parameters": [ {
				"name": "var",
				"value": "bb.lineInfos.top"
			}, {
				"name": "value",
				"value": "nota_uhlik_map.PrepareDOTALine(points.top, stepSize)"
			}, {
				"name": "scriptName",
				"value": "store"
			} ],
			"scriptName": "store"
		}, {
			"children": [],
			"id": "hjhavNCQhTWxIoRReUvacuGz3Y470rJM",
			"nodeType": "luaCommand",
			"parameters": [ {
				"name": "var",
				"value": "bb.lineInfos.bot"
			}, {
				"name": "value",
				"value": "nota_uhlik_map.PrepareDOTALine(points.bot, stepSize)"
			}, {
				"name": "scriptName",
				"value": "store"
			} ],
			"scriptName": "store"
		} ],
		"id": "gGv26n1DUSNvOCoHBPRyGIKonOCp6kOi",
		"nodeType": "sequence",
		"parameters": []
	}
}